

 NAS Parallel Benchmarks 3.4 -- FT Benchmark

 No input file inputft.data. Using compiled defaults
 Size                : 4096x2048x2048  (class E)
 Iterations          :             25
 Number of processes :             60
 Processor array     :         1x  32
 WARNING: Number of processes is not power of two (32).  Will not verify.
 Layout type         :             1D
